<svg width="281" height="261" viewBox="0 0 281 261" fill="none" xmlns="http://www.w3.org/2000/svg">
<path d="M48.1015 201.962C98.8895 227.242 181.234 227.242 232.022 201.962C282.81 176.681 282.804 135.699 232.022 110.419C181.239 85.1382 98.8895 85.1382 48.1015 110.419C-2.6864 135.699 -2.68078 176.687 48.1015 201.962Z" fill="#F5F5F5"/>
<path d="M64.63 38.3879L60.696 40.4759C60.696 40.3141 60.7297 40.1523 60.7297 39.9957V38.9517C60.7297 37.0829 59.3135 36.3417 57.5713 37.2604C56.8194 37.6866 56.1769 38.2603 55.6886 38.9412C55.402 36.587 53.4406 35.71 51.0015 37.0046C48.3938 38.4036 46.2751 41.807 46.2751 44.6101V46.1761C46.2671 46.8151 46.417 47.4473 46.7135 48.024L43.4707 49.7623C42.9607 50.0713 42.5362 50.4875 42.2316 50.9772C41.9269 51.4669 41.7508 52.0164 41.7173 52.5811C41.7173 53.6251 42.5041 54.0427 43.4707 53.5207L64.63 42.1463C65.1404 41.8376 65.5651 41.4215 65.8698 40.9317C66.1744 40.4419 66.3504 39.8923 66.3835 39.3275C66.3947 38.2939 65.6079 37.8711 64.63 38.3879Z" fill="#EBEBEB"/>
<path d="M81.3609 48.9636L78.4104 50.5296C78.4186 50.4079 78.4186 50.2859 78.4104 50.1642V49.3864C78.4104 47.977 77.3426 47.4028 76.0275 48.1075C75.4619 48.4317 74.9772 48.8641 74.6056 49.376C74.3921 47.6012 72.8915 46.9435 71.0707 47.9196C70.0306 48.5476 69.1651 49.3952 68.5449 50.3931C67.9247 51.391 67.5673 52.511 67.502 53.6616V54.8465C67.4909 55.3212 67.5946 55.7921 67.8054 56.2246L65.3551 57.5348C64.9704 57.7686 64.6504 58.0832 64.421 58.4532C64.1915 58.8232 64.0591 59.2382 64.0344 59.6646C64.0344 60.4476 64.6245 60.766 65.3551 60.3745L81.3328 51.8033C81.7174 51.5706 82.0374 51.257 82.2669 50.8878C82.4964 50.5186 82.6288 50.1044 82.6535 49.6787C82.6816 48.8905 82.0915 48.5721 81.3609 48.9636Z" fill="#EBEBEB"/>
<path d="M239.272 63.1986L236.321 64.7646C236.329 64.6429 236.329 64.5208 236.321 64.3992V63.6057C236.321 62.1963 235.253 61.6221 233.938 62.332C233.37 62.6532 232.885 63.0862 232.516 63.6005C232.303 61.8257 230.83 61.1628 228.981 62.1389C227.942 62.7675 227.078 63.6153 226.459 64.6132C225.839 65.611 225.483 66.7307 225.418 67.8809V69.0658C225.404 69.5402 225.506 70.0114 225.716 70.4439L223.271 71.7541C222.886 71.9876 222.565 72.3021 222.335 72.672C222.104 73.042 221.971 73.4571 221.945 73.8839C221.945 74.6669 222.541 74.9853 223.271 74.5938L239.249 66.0226C239.634 65.7899 239.954 65.4763 240.183 65.1071C240.413 64.7379 240.545 64.3237 240.57 63.898C240.592 63.1255 240.002 62.8071 239.272 63.1986Z" fill="#EBEBEB"/>
<path d="M63.1407 114.026L19.3103 137.531V139.489L59.4877 161.032L103.318 137.531V135.574L63.1407 114.026Z" fill="#FFC100"/>
<path opacity="0.15" d="M19.3103 137.531L59.4877 159.074V161.032L19.3103 139.489V137.531Z" fill="black"/>
<path opacity="0.1" d="M59.4875 159.074L103.318 135.574V137.531L59.4875 161.032V159.074Z" fill="black"/>
<path d="M99.4182 128.506L97.686 131.676L97.9667 131.808L99.6988 128.638L99.4182 128.506Z" fill="#455A64"/>
<path d="M96.2168 128.258L95.9492 128.411L97.6383 130.946L97.9059 130.792L96.2168 128.258Z" fill="#455A64"/>
<path d="M98.0915 127.963V135.605C98.0904 135.626 98.0829 135.647 98.0701 135.664C98.0572 135.682 98.0393 135.696 98.0184 135.704C97.9614 135.733 97.8977 135.748 97.833 135.748C97.7683 135.748 97.7046 135.733 97.6475 135.704C97.6256 135.696 97.6066 135.683 97.5927 135.665C97.5787 135.648 97.5705 135.627 97.5688 135.605V127.963H98.0915Z" fill="#455A64"/>
<path d="M104.313 125.588C104.313 126.29 104.089 126.976 103.669 127.56C103.249 128.144 102.652 128.599 101.954 128.867C101.255 129.136 100.487 129.206 99.7457 129.069C99.0044 128.932 98.3235 128.594 97.789 128.098C97.2545 127.602 96.8906 126.969 96.7431 126.28C96.5957 125.592 96.6713 124.878 96.9606 124.23C97.2498 123.581 97.7397 123.027 98.3681 122.637C98.9966 122.247 99.7354 122.038 100.491 122.038C101.504 122.04 102.476 122.414 103.192 123.08C103.908 123.745 104.311 124.647 104.313 125.588Z" fill="#FFC100"/>
<path opacity="0.2" d="M101.688 124.68C102.183 123.239 102.706 122.675 102.374 122.498C101.741 122.164 101.019 122.005 100.292 122.04C99.5655 122.074 98.8645 122.301 98.2716 122.693C97.6788 123.085 97.2188 123.626 96.9456 124.252C96.6724 124.879 96.5974 125.564 96.7295 126.229C96.8616 126.894 97.1952 127.51 97.6911 128.004C98.1871 128.499 98.8247 128.851 99.5291 129.021C100.234 129.19 100.975 129.17 101.667 128.961C102.36 128.752 102.973 128.364 103.436 127.843C102.284 128.151 101.048 126.548 101.688 124.68Z" fill="black"/>
<path d="M97.1586 126.59C97.1586 127.084 97.0011 127.566 96.7059 127.976C96.4107 128.387 95.9911 128.707 95.5003 128.895C95.0094 129.084 94.4693 129.134 93.9482 129.037C93.4271 128.941 92.9484 128.704 92.5727 128.355C92.197 128.006 91.9412 127.561 91.8375 127.077C91.7339 126.593 91.7871 126.091 91.9904 125.635C92.1937 125.179 92.538 124.79 92.9798 124.516C93.4216 124.241 93.9409 124.095 94.4723 124.095C95.1847 124.095 95.868 124.358 96.3718 124.826C96.8756 125.294 97.1586 125.928 97.1586 126.59Z" fill="#FFC100"/>
<path opacity="0.2" d="M94.4722 124.095C93.9085 124.095 93.3594 124.261 92.9042 124.57C92.8311 126.089 94.2249 127.577 93.8315 128.078C93.4381 128.579 92.4883 128.271 92.1455 127.843C92.3822 128.222 92.7219 128.536 93.1307 128.754C93.5394 128.972 94.0027 129.086 94.4741 129.085C94.9455 129.085 95.4083 128.968 95.8161 128.749C96.2239 128.529 96.5623 128.214 96.7973 127.834C97.0323 127.455 97.1557 127.025 97.1551 126.587C97.1544 126.149 97.0297 125.719 96.7935 125.34C96.5574 124.961 96.218 124.647 95.8096 124.428C95.4011 124.21 94.9379 124.095 94.4666 124.095H94.4722Z" fill="black"/>
<path d="M97.833 128.48C100.555 128.48 102.762 126.43 102.762 123.902C102.762 121.374 100.555 119.324 97.833 119.324C95.111 119.324 92.9043 121.374 92.9043 123.902C92.9043 126.43 95.111 128.48 97.833 128.48Z" fill="#FFC100"/>
<path opacity="0.1" d="M102.627 124.946C102.441 125.687 102.058 126.374 101.515 126.943C100.971 127.513 100.283 127.947 99.5134 128.208C98.7435 128.468 97.9158 128.546 97.1052 128.435C96.2946 128.323 95.5266 128.026 94.8709 127.57C94.2152 127.113 93.6923 126.512 93.3496 125.821C93.007 125.129 92.8553 124.37 92.9083 123.61C92.9613 122.851 93.2173 122.115 93.6533 121.471C94.0892 120.826 94.6913 120.293 95.4049 119.919C94.9885 120.147 94.6099 120.43 94.2809 120.759C94.0359 121.738 94.1447 122.764 94.5905 123.68C95.0363 124.595 95.7943 125.349 96.7473 125.824C97.7003 126.299 98.7953 126.47 99.863 126.309C100.931 126.149 101.912 125.666 102.655 124.935L102.627 124.946Z" fill="black"/>
<path d="M26.3931 130.457L24.6609 133.627L24.9415 133.759L26.6737 130.589L26.3931 130.457Z" fill="#455A64"/>
<path d="M23.1782 130.204L22.9106 130.358L24.5997 132.892L24.8673 132.738L23.1782 130.204Z" fill="#455A64"/>
<path d="M25.0595 129.91V137.552C25.0573 137.574 25.0488 137.594 25.0349 137.612C25.0211 137.629 25.0024 137.643 24.9808 137.651C24.923 137.677 24.8596 137.691 24.7954 137.691C24.7312 137.691 24.6678 137.677 24.6099 137.651C24.5891 137.643 24.5712 137.629 24.5583 137.611C24.5454 137.594 24.538 137.573 24.5369 137.552V129.91H25.0595Z" fill="#455A64"/>
<path d="M31.2809 127.53C31.2809 128.232 31.0568 128.918 30.6368 129.502C30.2169 130.086 29.6201 130.541 28.9218 130.809C28.2235 131.078 27.4551 131.148 26.7137 131.011C25.9724 130.874 25.2915 130.536 24.757 130.04C24.2226 129.543 23.8586 128.911 23.7111 128.222C23.5637 127.534 23.6394 126.82 23.9286 126.171C24.2178 125.523 24.7077 124.968 25.3361 124.578C25.9646 124.188 26.7035 123.98 27.4593 123.98C28.4728 123.98 29.4449 124.354 30.1616 125.02C30.8783 125.686 31.2809 126.588 31.2809 127.53Z" fill="#FFC100"/>
<path opacity="0.2" d="M28.6618 126.622C29.1564 125.181 29.679 124.617 29.3475 124.445C28.7748 124.139 28.1254 123.979 27.4648 123.98C26.8208 123.98 26.1873 124.131 25.6229 124.419C25.0585 124.707 24.5817 125.123 24.2366 125.627C23.8915 126.132 23.6893 126.71 23.6489 127.307C23.6085 127.904 23.7311 128.501 24.0054 129.042C24.2797 129.583 24.6967 130.051 25.2178 130.402C25.7389 130.754 26.3471 130.977 26.986 131.052C27.6249 131.126 28.2737 131.05 28.8722 130.829C29.4708 130.609 29.9996 130.251 30.4096 129.79C29.2744 130.098 28.0155 128.49 28.6618 126.622Z" fill="black"/>
<path d="M24.1266 128.537C24.1266 129.031 23.9691 129.513 23.6739 129.924C23.3787 130.334 22.9592 130.654 22.4683 130.843C21.9774 131.031 21.4373 131.081 20.9162 130.984C20.3951 130.888 19.9164 130.651 19.5407 130.302C19.165 129.953 18.9092 129.508 18.8055 129.024C18.7019 128.54 18.7551 128.038 18.9584 127.582C19.1617 127.126 19.506 126.737 19.9478 126.463C20.3896 126.188 20.909 126.042 21.4403 126.042C21.7933 126.041 22.1429 126.105 22.4692 126.231C22.7954 126.356 23.0919 126.54 23.3415 126.771C23.5911 127.003 23.7889 127.279 23.9236 127.582C24.0584 127.885 24.1274 128.209 24.1266 128.537Z" fill="#FFC100"/>
<path opacity="0.2" d="M21.4402 126.042C20.8771 126.04 20.328 126.205 19.8722 126.512C19.7992 128.036 21.1873 129.524 20.7995 130.02C20.4117 130.516 19.4507 130.213 19.1135 129.79C19.3502 130.169 19.69 130.483 20.0987 130.701C20.5074 130.919 20.9708 131.033 21.4421 131.032C21.9135 131.032 22.3763 130.916 22.7841 130.696C23.1919 130.476 23.5303 130.161 23.7653 129.781C24.0004 129.402 24.1237 128.972 24.1231 128.534C24.1224 128.096 23.9977 127.666 23.7616 127.287C23.5254 126.908 23.186 126.594 22.7776 126.375C22.3691 126.157 21.906 126.042 21.4346 126.042H21.4402Z" fill="black"/>
<path d="M24.7954 130.422C27.5175 130.422 29.7242 128.372 29.7242 125.844C29.7242 123.315 27.5175 121.266 24.7954 121.266C22.0734 121.266 19.8667 123.315 19.8667 125.844C19.8667 128.372 22.0734 130.422 24.7954 130.422Z" fill="#FFC100"/>
<path opacity="0.1" d="M29.5893 126.893C29.4011 127.632 29.0177 128.316 28.4738 128.883C27.9299 129.449 27.2425 129.882 26.4738 130.14C25.7051 130.398 24.8791 130.475 24.0706 130.363C23.262 130.251 22.4963 129.953 21.8425 129.497C21.1888 129.041 20.6675 128.441 20.3258 127.751C19.9841 127.062 19.8328 126.304 19.8855 125.546C19.9381 124.788 20.1931 124.054 20.6274 123.411C21.0618 122.768 21.6617 122.235 22.3732 121.861C21.948 122.089 21.5601 122.372 21.2211 122.701C20.9782 123.679 21.0881 124.703 21.5339 125.617C21.9797 126.531 22.7366 127.283 23.688 127.758C24.6395 128.233 25.7326 128.404 26.799 128.245C27.8654 128.085 28.8458 127.605 29.5893 126.877V126.893Z" fill="black"/>
<path d="M73.0881 145.904L79.2083 142.626L84.6991 145.57L78.5845 148.843L73.0881 145.904Z" fill="#F0F0F0"/>
<path d="M30.2749 137.531L30.2693 119.903L59.4933 135.569V153.202L30.2749 137.531Z" fill="#F0F0F0"/>
<path d="M30.2693 126.898L59.4933 142.574V135.569L30.2693 119.903V126.898Z" fill="#E0E0E0"/>
<path d="M92.3589 135.569V118.431L81.3999 115.983V114.026L59.4932 135.569V153.202L92.3589 135.569Z" fill="#FAFAFA"/>
<path d="M81.3999 114.026V115.983L94.1854 118.922V116.965L81.3999 114.026Z" fill="#263238"/>
<path d="M64.9728 101.294L94.1855 116.965L81.4 114.026L52.1816 98.3553L64.9728 101.294Z" fill="#37474F"/>
<path d="M57.6612 138.518L81.4057 114.026V112.068L55.8347 139.489L57.6612 138.518Z" fill="#37474F"/>
<path d="M52.1872 96.3978L81.4056 112.068L55.8795 139.515L26.6162 123.818L52.1872 96.3978Z" fill="#455A64"/>
<path d="M43.021 121.788L46.7021 123.761V128.715L43.021 126.757V121.788Z" fill="#263238"/>
<path d="M46.7021 123.761L50.3776 121.788V124.8L46.7021 128.715V123.761Z" fill="#37474F"/>
<path d="M46.7022 118.431L42.6389 120.608V121.595L46.7022 123.761L50.7598 121.595V120.608L46.7022 118.431Z" fill="#F5F5F5"/>
<path d="M42.6389 121.595L46.7022 123.761V122.774L42.6389 120.608V121.595Z" fill="#E0E0E0"/>
<path d="M50.7598 121.595L46.7021 123.761V122.774L50.7598 120.608V121.595Z" fill="#EBEBEB"/>
<path d="M44.0046 120.608L46.7022 119.162L49.3998 120.608L46.7022 122.049L44.0046 120.608Z" fill="#FFC100"/>
<path d="M46.7022 119.162V122.049L44.0046 120.608L46.7022 119.162Z" fill="#37474F"/>
<path d="M46.7021 119.162L49.3997 120.608L46.7021 122.049V119.162Z" fill="#263238"/>
<path d="M61.8594 140.178L70.0814 135.772V141.65L61.8594 146.056V140.178Z" fill="#455A64"/>
<path d="M69.7161 141.452V135.971L61.8594 140.178V145.664L69.7161 141.452Z" fill="#E0E0E0"/>
<path d="M70.0814 141.65L69.7161 141.452L61.8594 145.664V146.056L70.0814 141.65Z" fill="#37474F"/>
<path d="M61.8594 143.117L70.0814 138.711V138.314L61.8594 142.72V143.117Z" fill="#455A64"/>
<path d="M81.9507 129.399L90.1671 124.993V130.871L81.9507 135.276V129.399Z" fill="#455A64"/>
<path d="M89.8018 130.672V125.191L81.9507 129.399V134.885L89.8018 130.672Z" fill="#E0E0E0"/>
<path d="M90.1671 130.871L89.8018 130.672L81.9507 134.885V135.276L90.1671 130.871Z" fill="#37474F"/>
<path d="M81.9507 132.337L90.1671 127.932V127.535L81.9507 131.946V132.337Z" fill="#455A64"/>
<path d="M73.0881 145.904V134.154L79.2083 130.876V142.626L73.0881 145.904Z" fill="#37474F"/>
<path d="M78.9948 142.475V130.991L73.0881 134.154V145.638L78.9948 142.475Z" fill="#455A64"/>
<path d="M79.2082 130.876L78.9946 130.991V142.475L79.2082 142.626V130.876Z" fill="#263238"/>
<path d="M52.8222 137.876L48.5286 135.574V141.446L52.8222 143.748V137.876Z" fill="#455A64"/>
<path d="M48.894 141.248V135.767L52.8224 137.876V143.357L48.894 141.248Z" fill="#FAFAFA"/>
<path d="M48.5286 141.446L48.8939 141.248L52.8222 143.357V143.748L48.5286 141.446Z" fill="#37474F"/>
<path d="M52.8222 140.794L48.5286 138.508V138.111L52.8222 140.397V140.794Z" fill="#455A64"/>
<path d="M48.894 135.767L52.8224 137.876V139.009L48.894 136.915V135.767Z" fill="#F5F5F5"/>
<path d="M40.0368 131.017L35.7432 128.715V134.592L40.0368 136.895V131.017Z" fill="#455A64"/>
<path d="M36.114 134.394V128.913L40.0368 131.017V136.498L36.114 134.394Z" fill="#FAFAFA"/>
<path d="M35.7432 134.593L36.1141 134.394L40.0368 136.498V136.895L35.7432 134.593Z" fill="#37474F"/>
<path d="M40.0368 133.935L35.7432 131.648V131.252L40.0368 133.538V133.935Z" fill="#455A64"/>
<path d="M36.114 128.913L40.0368 131.017V132.103L36.114 130.015V128.913Z" fill="#F5F5F5"/>
<path d="M215.167 112.314L171.337 135.819V137.777L215.167 161.282L259.003 137.777V135.819L215.167 112.314Z" fill="#FFC100"/>
<path opacity="0.15" d="M171.337 135.819L215.173 159.325L215.167 161.282L171.337 137.777V135.819Z" fill="black"/>
<path opacity="0.1" d="M215.173 159.325L259.003 135.819V137.777L215.167 161.282L215.173 159.325Z" fill="black"/>
<path d="M255.225 128.815L253.493 131.985L253.773 132.118L255.505 128.948L255.225 128.815Z" fill="#455A64"/>
<path d="M252.463 127.676L252.196 127.831L253.896 130.364L254.164 130.209L252.463 127.676Z" fill="#455A64"/>
<path d="M253.906 128.276V135.918C253.905 135.94 253.897 135.96 253.885 135.978C253.872 135.995 253.854 136.009 253.833 136.018C253.776 136.046 253.712 136.061 253.647 136.061C253.583 136.061 253.519 136.046 253.462 136.018C253.44 136.009 253.422 135.996 253.408 135.978C253.394 135.961 253.386 135.94 253.383 135.918V128.276H253.906Z" fill="#455A64"/>
<path d="M260.127 125.901C260.127 126.603 259.903 127.29 259.483 127.873C259.063 128.457 258.466 128.912 257.768 129.181C257.07 129.449 256.301 129.52 255.56 129.383C254.819 129.246 254.138 128.908 253.603 128.411C253.069 127.915 252.705 127.282 252.557 126.594C252.41 125.905 252.486 125.191 252.775 124.543C253.064 123.894 253.554 123.34 254.182 122.95C254.811 122.56 255.55 122.352 256.306 122.352C257.319 122.352 258.291 122.726 259.008 123.391C259.725 124.057 260.127 124.96 260.127 125.901Z" fill="#FFC100"/>
<path opacity="0.2" d="M257.503 124.993C257.997 123.552 258.526 122.988 258.188 122.811C257.555 122.478 256.833 122.32 256.106 122.355C255.38 122.391 254.679 122.618 254.087 123.01C253.494 123.403 253.035 123.944 252.762 124.571C252.49 125.197 252.416 125.883 252.548 126.548C252.681 127.212 253.015 127.828 253.512 128.322C254.008 128.816 254.646 129.168 255.35 129.337C256.055 129.506 256.797 129.485 257.489 129.275C258.18 129.066 258.794 128.678 259.256 128.156C258.121 128.464 256.868 126.846 257.503 124.993Z" fill="black"/>
<path d="M252.973 126.903C252.973 127.397 252.816 127.879 252.52 128.29C252.225 128.7 251.806 129.02 251.315 129.209C250.824 129.398 250.284 129.447 249.763 129.351C249.242 129.254 248.763 129.017 248.387 128.668C248.011 128.319 247.756 127.874 247.652 127.39C247.548 126.906 247.602 126.405 247.805 125.949C248.008 125.493 248.352 125.103 248.794 124.829C249.236 124.555 249.755 124.408 250.287 124.408C250.999 124.408 251.682 124.671 252.186 125.139C252.69 125.607 252.973 126.242 252.973 126.903Z" fill="#FFC100"/>
<path opacity="0.2" d="M250.287 124.408C249.723 124.409 249.174 124.575 248.719 124.883C248.646 126.402 250.039 127.89 249.652 128.391C249.264 128.892 248.303 128.584 247.966 128.156C248.202 128.535 248.542 128.849 248.951 129.067C249.359 129.285 249.823 129.4 250.294 129.399C250.766 129.398 251.228 129.282 251.636 129.062C252.044 128.842 252.382 128.527 252.617 128.148C252.852 127.768 252.976 127.338 252.975 126.9C252.974 126.462 252.85 126.032 252.614 125.653C252.377 125.274 252.038 124.96 251.63 124.741C251.221 124.523 250.758 124.408 250.287 124.408Z" fill="black"/>
<path d="M253.647 128.793C256.369 128.793 258.576 126.743 258.576 124.215C258.576 121.687 256.369 119.637 253.647 119.637C250.925 119.637 248.719 121.687 248.719 124.215C248.719 126.743 250.925 128.793 253.647 128.793Z" fill="#FFC100"/>
<path opacity="0.1" d="M258.441 125.28C258.251 126.018 257.865 126.701 257.32 127.267C256.775 127.833 256.086 128.263 255.317 128.52C254.548 128.778 253.722 128.853 252.913 128.74C252.105 128.626 251.34 128.328 250.686 127.872C250.033 127.415 249.512 126.815 249.17 126.125C248.829 125.435 248.677 124.677 248.73 123.92C248.782 123.162 249.037 122.428 249.47 121.784C249.904 121.141 250.503 120.607 251.214 120.232C250.785 120.457 250.395 120.74 250.056 121.073C249.811 122.051 249.92 123.078 250.366 123.993C250.812 124.908 251.57 125.662 252.523 126.137C253.476 126.612 254.571 126.783 255.638 126.622C256.706 126.462 257.687 125.979 258.43 125.249L258.441 125.28Z" fill="black"/>
<path d="M178.406 128.648L176.673 131.818L176.954 131.95L178.686 128.781L178.406 128.648Z" fill="#455A64"/>
<path d="M175.665 127.762L175.397 127.917L177.098 130.45L177.366 130.295L175.665 127.762Z" fill="#455A64"/>
<path d="M177.086 128.109V135.751C177.083 135.773 177.075 135.793 177.061 135.811C177.047 135.828 177.029 135.842 177.007 135.851C176.95 135.876 176.886 135.89 176.822 135.89C176.758 135.89 176.694 135.876 176.637 135.851C176.617 135.841 176.6 135.826 176.587 135.809C176.574 135.792 176.566 135.772 176.563 135.751V128.109H177.086Z" fill="#455A64"/>
<path d="M183.308 125.729C183.308 126.431 183.083 127.117 182.663 127.701C182.244 128.285 181.647 128.74 180.948 129.008C180.25 129.277 179.482 129.347 178.74 129.21C177.999 129.073 177.318 128.735 176.784 128.239C176.249 127.743 175.885 127.11 175.738 126.421C175.59 125.733 175.666 125.019 175.955 124.371C176.244 123.722 176.734 123.168 177.363 122.778C177.991 122.388 178.73 122.179 179.486 122.179C180.499 122.181 181.47 122.555 182.187 123.221C182.903 123.886 183.306 124.788 183.308 125.729Z" fill="#FFC100"/>
<path opacity="0.2" d="M180.683 124.821C181.178 123.38 181.7 122.816 181.369 122.639C180.736 122.306 180.014 122.148 179.287 122.183C178.561 122.218 177.861 122.444 177.268 122.836C176.676 123.228 176.216 123.769 175.943 124.395C175.67 125.021 175.595 125.707 175.727 126.371C175.859 127.035 176.192 127.651 176.688 128.146C177.183 128.64 177.82 128.993 178.524 129.163C179.228 129.333 179.97 129.313 180.662 129.105C181.354 128.897 181.967 128.51 182.431 127.989C181.301 128.292 180.042 126.689 180.683 124.821Z" fill="black"/>
<path d="M176.153 126.731C176.154 127.225 175.998 127.708 175.703 128.119C175.409 128.53 174.99 128.85 174.499 129.04C174.008 129.23 173.468 129.28 172.946 129.184C172.425 129.089 171.946 128.851 171.569 128.503C171.193 128.154 170.937 127.709 170.833 127.225C170.728 126.741 170.781 126.239 170.984 125.783C171.188 125.327 171.532 124.937 171.974 124.662C172.416 124.388 172.935 124.241 173.467 124.241C174.178 124.241 174.861 124.503 175.364 124.97C175.868 125.437 176.152 126.07 176.153 126.731Z" fill="#FFC100"/>
<path opacity="0.2" d="M173.467 124.236C172.904 124.234 172.355 124.399 171.899 124.706C171.826 126.23 173.22 127.713 172.826 128.214C172.433 128.715 171.477 128.407 171.14 127.984C171.377 128.363 171.717 128.677 172.125 128.895C172.534 129.113 172.997 129.227 173.469 129.226C173.94 129.225 174.403 129.109 174.811 128.89C175.219 128.67 175.557 128.355 175.792 127.975C176.027 127.596 176.15 127.166 176.15 126.728C176.149 126.29 176.024 125.86 175.788 125.481C175.552 125.102 175.213 124.788 174.804 124.569C174.396 124.351 173.933 124.236 173.461 124.236H173.467Z" fill="black"/>
<path d="M176.822 128.621C179.544 128.621 181.751 126.571 181.751 124.043C181.751 121.515 179.544 119.465 176.822 119.465C174.1 119.465 171.893 121.515 171.893 124.043C171.893 126.571 174.1 128.621 176.822 128.621Z" fill="#FFC100"/>
<path opacity="0.1" d="M181.621 125.092C181.434 125.833 181.052 126.518 180.507 127.087C179.963 127.656 179.275 128.09 178.505 128.349C177.736 128.609 176.908 128.687 176.098 128.575C175.288 128.463 174.52 128.165 173.865 127.708C173.21 127.252 172.688 126.651 172.345 125.96C172.003 125.269 171.852 124.509 171.905 123.75C171.958 122.991 172.214 122.256 172.649 121.612C173.085 120.967 173.687 120.434 174.4 120.06C173.973 120.286 173.585 120.569 173.248 120.9C173.008 121.878 173.12 122.902 173.567 123.814C174.013 124.727 174.77 125.478 175.721 125.952C176.672 126.426 177.765 126.598 178.831 126.439C179.896 126.281 180.877 125.802 181.621 125.076V125.092Z" fill="black"/>
<path d="M223.996 102.093L227.672 104.066V108.012L223.996 106.039V102.093Z" fill="#E0E0E0"/>
<path d="M227.672 104.066L231.353 102.093V109.98L227.672 108.012V104.066Z" fill="#F0F0F0"/>
<path d="M227.672 98.7363L223.614 100.908V101.894L227.672 104.066L231.735 101.894V100.908L227.672 98.7363Z" fill="#455A64"/>
<path d="M223.614 101.894L227.672 104.066V103.079L223.614 100.908V101.894Z" fill="#37474F"/>
<path d="M231.735 101.894L227.672 104.066V103.079L231.735 100.908V101.894Z" fill="#263238"/>
<path d="M224.974 100.908L227.672 99.4672L230.375 100.908L227.672 102.354L224.974 100.908Z" fill="#FFC100"/>
<path d="M227.672 99.4672V102.354L224.974 100.908L227.672 99.4672Z" fill="#37474F"/>
<path d="M227.672 99.4672L230.375 100.908L227.672 102.354V99.4672Z" fill="#263238"/>
<path d="M215.173 141.697L215.167 124.069L226.109 129.941V147.569L215.173 141.697Z" fill="#F0F0F0"/>
<path d="M215.167 124.069L226.109 129.941V136.962L215.167 131.1V124.069Z" fill="#E0E0E0"/>
<path d="M248.044 135.819V118.191L237.063 112.314L226.109 129.941V147.569L248.044 135.819Z" fill="#FAFAFA"/>
<path d="M224.3 132.88L237.063 112.314V110.356L222.473 133.862L224.3 132.88Z" fill="#37474F"/>
<path d="M215.167 98.6058L237.063 110.356L222.473 133.862L215.173 129.941L215.167 98.6058Z" fill="#455A64"/>
<path d="M237.063 112.314L249.871 119.167L251.697 118.191L237.063 110.356V112.314Z" fill="#263238"/>
<path d="M241.643 127.864L245.937 125.578V131.455L241.643 133.742V127.864Z" fill="#455A64"/>
<path d="M245.571 131.257V125.776L241.643 127.864V133.345L245.571 131.257Z" fill="#E0E0E0"/>
<path d="M245.937 131.455L245.571 131.257L241.643 133.345V133.742L245.937 131.455Z" fill="#37474F"/>
<path d="M241.643 130.803L245.937 128.516V128.12L241.643 130.406V130.803Z" fill="#455A64"/>
<path d="M228.166 135.083L232.46 132.797V138.669L228.166 140.961V135.083Z" fill="#455A64"/>
<path d="M232.095 138.476V132.99L228.166 135.083V140.564L232.095 138.476Z" fill="#E0E0E0"/>
<path d="M232.46 138.669L232.095 138.476L228.166 140.564V140.961L232.46 138.669Z" fill="#37474F"/>
<path d="M228.166 138.022L232.46 135.736V135.339L228.166 137.625V138.022Z" fill="#455A64"/>
<path d="M234.326 121.13L239.805 118.191V122.597L234.326 125.536V121.13Z" fill="#455A64"/>
<path d="M239.44 122.399V118.384L234.326 121.13V125.144L239.44 122.399Z" fill="#E0E0E0"/>
<path d="M239.805 122.597L239.44 122.399L234.326 125.144V125.536L239.805 122.597Z" fill="#37474F"/>
<path d="M249.871 119.167H248.044V118.191L249.871 119.167Z" fill="black"/>
<path d="M234.005 143.331V131.581L240.126 128.302V140.053L234.005 143.331Z" fill="#37474F"/>
<path d="M239.912 139.901V128.417L234.005 131.581V143.065L239.912 139.901Z" fill="#455A64"/>
<path d="M240.126 128.302L239.912 128.417V139.901L240.126 140.053V128.302Z" fill="#263238"/>
<path d="M215.167 141.697V124.069L204.231 129.941V147.569L215.167 141.697Z" fill="#FAFAFA"/>
<path d="M215.167 124.069L204.231 129.941V136.962L215.173 131.1L215.167 124.069Z" fill="#F5F5F5"/>
<path d="M182.296 135.819V118.191L193.272 112.314L204.231 129.941V147.569L182.296 135.819Z" fill="#EBEBEB"/>
<path d="M206.04 132.88L193.272 112.314V110.356L207.867 133.862L206.04 132.88Z" fill="#455A64"/>
<path d="M215.167 98.6058L193.272 110.356L207.867 133.862L215.167 129.941V98.6058Z" fill="#37474F"/>
<path d="M193.272 112.314L180.469 119.167L178.643 118.191L193.272 110.356V112.314Z" fill="#263238"/>
<path d="M190.243 128.313L185.949 126.026V131.904L190.243 134.185V128.313Z" fill="#455A64"/>
<path d="M186.314 131.706V126.22L190.243 128.313V133.794L186.314 131.706Z" fill="#FAFAFA"/>
<path d="M186.314 126.22L190.243 128.328V129.054L186.314 126.961V126.22Z" fill="#F5F5F5"/>
<path d="M196.633 131.753L200.561 133.862V134.587L196.633 132.494V131.753Z" fill="#F5F5F5"/>
<path d="M185.949 131.904L186.314 131.706L190.243 133.794V134.185L185.949 131.904Z" fill="#37474F"/>
<path d="M190.243 131.252L185.949 128.965V128.569L190.243 130.855V131.252Z" fill="#455A64"/>
<path d="M196.014 121.13L190.535 118.191V122.597L196.014 125.536V121.13Z" fill="#455A64"/>
<path d="M190.9 122.399V118.384L196.014 121.13V125.144L190.9 122.399Z" fill="#FAFAFA"/>
<path d="M190.9 118.384L196.014 121.13V121.856L190.9 119.131V118.384Z" fill="#F5F5F5"/>
<path d="M190.535 122.597L190.9 122.399L196.014 125.144V125.536L190.535 122.597Z" fill="#37474F"/>
<path d="M180.469 119.167H182.296V118.191L180.469 119.167Z" fill="black"/>
<path d="M200.561 133.862L196.267 131.56V137.432L200.561 139.734V133.862Z" fill="#455A64"/>
<path d="M196.633 137.234V131.753L200.561 133.862V139.343L196.633 137.234Z" fill="#FAFAFA"/>
<path d="M196.267 137.432L196.633 137.234L200.561 139.343V139.734L196.267 137.432Z" fill="#37474F"/>
<path d="M200.561 136.78L196.267 134.493V134.097L200.561 136.383V136.78Z" fill="#455A64"/>
<path d="M196.633 131.753L200.561 133.862V134.587L196.633 132.494V131.753Z" fill="#F5F5F5"/>
<path d="M222.473 133.862L216.988 130.918V136.336L222.473 139.275V133.862Z" fill="#263238"/>
<path d="M217.325 136.153V131.1L222.473 133.862V138.915L217.325 136.153Z" fill="#FAFAFA"/>
<path d="M217.325 131.1V132.275L222.473 135.041V133.862L217.325 131.1Z" fill="#F0F0F0"/>
<path d="M216.988 136.336L217.325 136.153L222.473 138.915V139.275L216.988 136.336Z" fill="#37474F"/>
<path d="M216.988 133.627L217.325 133.444L222.473 136.205V136.571L216.988 133.627Z" fill="#37474F"/>
<path d="M219.618 137.745L219.955 137.923V132.51L219.618 132.327V137.745Z" fill="#37474F"/>
<path d="M211.419 145.638L212.391 145.116C212.659 143.648 212.699 142.152 212.509 140.674C212.02 137.792 209.901 136.795 209.137 137.082C208.373 137.37 208.193 138.226 209.581 139.891C210.836 141.576 211.48 143.59 211.419 145.638Z" fill="#FFC100"/>
<g opacity="0.2">
<path opacity="0.2" d="M211.419 145.638L212.391 145.116C212.659 143.648 212.699 142.152 212.509 140.674C212.02 137.792 209.901 136.795 209.137 137.082C208.373 137.37 208.193 138.226 209.581 139.891C210.836 141.576 211.48 143.59 211.419 145.638Z" fill="black"/>
</g>
<path d="M211.773 144.511C211.763 144.51 211.754 144.508 211.746 144.503C211.738 144.499 211.73 144.494 211.724 144.487C211.719 144.48 211.714 144.472 211.712 144.463C211.71 144.455 211.709 144.446 211.711 144.437C212.116 141.739 210.947 138.779 209.632 137.584C209.619 137.572 209.612 137.556 209.612 137.539C209.612 137.523 209.619 137.507 209.632 137.495C209.644 137.483 209.661 137.477 209.679 137.477C209.697 137.477 209.714 137.483 209.727 137.495C211.065 138.706 212.256 141.713 211.852 144.458C211.85 144.467 211.847 144.475 211.842 144.482C211.838 144.489 211.831 144.495 211.824 144.5C211.817 144.505 211.808 144.508 211.8 144.51C211.791 144.512 211.782 144.512 211.773 144.511Z" fill="white"/>
<path d="M208.721 147.105C208.564 147.188 208.249 147.011 208.125 146.933C207.919 146.8 207.752 146.62 207.642 146.411C207.518 146.174 207.474 145.908 207.518 145.648C207.543 145.511 207.577 145.375 207.62 145.241C207.665 145.106 207.704 144.975 207.743 144.845C207.794 144.716 207.815 144.579 207.805 144.443C207.767 144.311 207.7 144.189 207.609 144.082C207.519 143.975 207.405 143.887 207.277 143.821C207.132 143.744 207.009 143.636 206.918 143.506C206.826 143.377 206.768 143.229 206.749 143.075C206.767 142.822 206.876 142.581 207.058 142.391C207.226 142.193 207.423 142.021 207.575 141.812C207.678 141.699 207.74 141.559 207.75 141.411C207.76 141.263 207.718 141.116 207.631 140.992C207.489 140.79 207.365 140.577 207.26 140.355C207.209 140.244 207.193 140.122 207.214 140.003C207.235 139.884 207.292 139.772 207.378 139.682C207.463 139.623 207.56 139.58 207.663 139.556C207.767 139.531 207.874 139.526 207.979 139.541C208.179 139.562 208.371 139.625 208.541 139.724C209.103 140.011 209.418 140.627 210.008 140.846C210.242 140.915 210.48 140.969 210.722 141.008C210.843 141.028 210.959 141.072 211.061 141.137C211.162 141.201 211.248 141.286 211.312 141.384C211.531 141.786 211.127 142.282 211.278 142.71C211.43 143.138 211.812 143.232 212.031 143.576C212.125 143.724 212.163 143.897 212.138 144.067C212.118 144.357 212.042 144.642 211.913 144.907C211.766 145.168 211.601 145.419 211.419 145.659L208.721 147.105Z" fill="#FFC100"/>
<g opacity="0.1">
<path opacity="0.1" d="M208.721 147.105C208.564 147.188 208.249 147.011 208.125 146.933C207.919 146.8 207.752 146.62 207.642 146.411C207.518 146.174 207.474 145.908 207.518 145.648C207.543 145.511 207.577 145.375 207.62 145.241C207.665 145.106 207.704 144.975 207.743 144.845C207.794 144.716 207.815 144.579 207.805 144.443C207.767 144.311 207.7 144.189 207.609 144.082C207.519 143.975 207.405 143.887 207.277 143.821C207.132 143.744 207.009 143.636 206.918 143.506C206.826 143.377 206.768 143.229 206.749 143.075C206.767 142.822 206.876 142.581 207.058 142.391C207.226 142.193 207.423 142.021 207.575 141.812C207.678 141.699 207.74 141.559 207.75 141.411C207.76 141.263 207.718 141.116 207.631 140.992C207.489 140.79 207.365 140.577 207.26 140.355C207.209 140.244 207.193 140.122 207.214 140.003C207.235 139.884 207.292 139.772 207.378 139.682C207.463 139.623 207.56 139.58 207.663 139.556C207.767 139.531 207.874 139.526 207.979 139.541C208.179 139.562 208.371 139.625 208.541 139.724C209.103 140.011 209.418 140.627 210.008 140.846C210.242 140.915 210.48 140.969 210.722 141.008C210.843 141.028 210.959 141.072 211.061 141.137C211.162 141.201 211.248 141.286 211.312 141.384C211.531 141.786 211.127 142.282 211.278 142.71C211.43 143.138 211.812 143.232 212.031 143.576C212.125 143.724 212.163 143.897 212.138 144.067C212.118 144.357 212.042 144.642 211.913 144.907C211.766 145.168 211.601 145.419 211.419 145.659L208.721 147.105Z" fill="black"/>
</g>
<path d="M210.3 146.327C210.282 146.325 210.266 146.317 210.254 146.304C210.241 146.292 210.234 146.276 210.233 146.259C210.351 143.701 209.053 140.877 208.109 140.058C208.102 140.052 208.097 140.045 208.093 140.037C208.089 140.03 208.087 140.021 208.087 140.013C208.087 140.004 208.088 139.996 208.091 139.988C208.095 139.98 208.1 139.973 208.106 139.967C208.112 139.96 208.12 139.955 208.128 139.952C208.136 139.948 208.145 139.947 208.154 139.946C208.164 139.946 208.173 139.947 208.181 139.951C208.19 139.954 208.197 139.958 208.204 139.964C209.165 140.799 210.491 143.67 210.373 146.264C210.372 146.282 210.364 146.297 210.35 146.309C210.337 146.321 210.319 146.327 210.3 146.327Z" fill="white"/>
<path d="M209.885 143.305C209.231 143.14 208.56 143.04 207.884 143.007C207.874 143.007 207.865 143.005 207.857 143.002C207.848 142.999 207.84 142.993 207.834 142.987C207.828 142.981 207.823 142.973 207.82 142.965C207.817 142.957 207.816 142.948 207.816 142.939C207.818 142.922 207.826 142.906 207.84 142.895C207.853 142.883 207.871 142.877 207.889 142.877C208.578 142.91 209.26 143.013 209.924 143.185C209.932 143.187 209.94 143.191 209.947 143.196C209.954 143.201 209.96 143.208 209.964 143.215C209.968 143.222 209.971 143.23 209.972 143.239C209.972 143.247 209.971 143.255 209.969 143.263C209.963 143.278 209.951 143.291 209.935 143.298C209.92 143.306 209.902 143.308 209.885 143.305Z" fill="white"/>
<path d="M234.005 143.331L240.126 140.053L245.616 142.997L239.496 146.27L234.005 143.331Z" fill="#F0F0F0"/>
<path d="M135.037 151.85L81.6135 180.497V182.7L137.089 212.449L190.507 183.801V181.599L135.037 151.85Z" fill="#FFC100"/>
<path d="M159.692 191.517L165.818 194.842L176.108 189.324L169.965 186.01L159.692 191.517Z" fill="#F0F0F0"/>
<path opacity="0.15" d="M81.6135 180.497L137.089 210.246V212.449L81.6135 182.7V180.497Z" fill="black"/>
<path opacity="0.1" d="M137.089 210.246L190.507 181.599V183.801L137.089 212.449V210.246Z" fill="black"/>
<path d="M184.504 171.844L182.124 176.2L182.509 176.382L184.89 172.026L184.504 171.844Z" fill="#263238"/>
<path d="M180.081 171.473L179.717 171.682L182.04 175.166L182.403 174.957L180.081 171.473Z" fill="#263238"/>
<path d="M182.65 171.07V181.567C182.647 181.597 182.635 181.625 182.616 181.649C182.598 181.672 182.572 181.691 182.543 181.703C182.464 181.741 182.376 181.76 182.288 181.76C182.199 181.76 182.111 181.741 182.032 181.703C182.003 181.691 181.979 181.672 181.961 181.648C181.943 181.624 181.933 181.596 181.931 181.567V171.07H182.65Z" fill="#263238"/>
<path d="M185.96 172.678C188.859 172.678 191.209 170.495 191.209 167.802C191.209 165.109 188.859 162.927 185.96 162.927C183.061 162.927 180.711 165.109 180.711 167.802C180.711 170.495 183.061 172.678 185.96 172.678Z" fill="#455A64"/>
<path d="M187.607 166.56C188.281 164.576 189.006 163.804 188.545 163.564C187.676 163.106 186.684 162.888 185.686 162.936C184.688 162.984 183.726 163.296 182.912 163.834C182.098 164.373 181.467 165.116 181.092 165.976C180.717 166.837 180.614 167.779 180.796 168.691C180.977 169.604 181.436 170.45 182.117 171.129C182.798 171.808 183.674 172.292 184.641 172.525C185.608 172.758 186.627 172.729 187.577 172.443C188.528 172.156 189.371 171.624 190.007 170.908C188.455 171.326 186.73 169.128 187.607 166.56Z" fill="#37474F"/>
<path d="M177.693 172.61C179.729 172.61 181.38 171.077 181.38 169.185C181.38 167.294 179.729 165.761 177.693 165.761C175.657 165.761 174.006 167.294 174.006 169.185C174.006 171.077 175.657 172.61 177.693 172.61Z" fill="#455A64"/>
<path d="M177.693 165.756C176.918 165.755 176.163 165.982 175.535 166.403C175.44 168.491 177.35 170.537 176.816 171.226C176.283 171.916 174.962 171.487 174.507 170.908C174.833 171.426 175.3 171.856 175.861 172.153C176.422 172.451 177.057 172.607 177.703 172.605C178.35 172.602 178.984 172.442 179.542 172.141C180.101 171.839 180.564 171.406 180.886 170.886C181.208 170.366 181.377 169.776 181.376 169.175C181.375 168.575 181.205 167.986 180.881 167.466C180.558 166.947 180.093 166.515 179.534 166.215C178.974 165.915 178.339 165.756 177.693 165.756Z" fill="#37474F"/>
<path d="M188.886 166.923C189.744 163.544 187.492 160.159 183.855 159.362C180.218 158.565 176.573 160.657 175.715 164.035C174.856 167.413 177.109 170.798 180.746 171.596C184.383 172.393 188.028 170.301 188.886 166.923Z" fill="#455A64"/>
<path d="M188.894 166.925C188.63 167.933 188.102 168.864 187.356 169.635C186.61 170.406 185.669 170.993 184.619 171.343C183.568 171.693 182.441 171.796 181.337 171.642C180.233 171.487 179.188 171.081 178.295 170.46C177.402 169.838 176.689 169.02 176.22 168.079C175.751 167.138 175.541 166.104 175.608 165.069C175.676 164.035 176.018 163.032 176.606 162.15C177.193 161.269 178.007 160.536 178.974 160.019C178.388 160.33 177.854 160.718 177.39 161.173C177.272 161.643 177.212 162.125 177.21 162.608C177.198 163.871 177.598 165.108 178.357 166.156C179.115 167.204 180.197 168.015 181.461 168.482C182.724 168.948 184.11 169.049 185.437 168.772C186.763 168.494 187.968 167.85 188.894 166.925Z" fill="#37474F"/>
<path d="M92.1049 170.599L89.7241 174.955L90.11 175.137L92.4908 170.781L92.1049 170.599Z" fill="#263238"/>
<path d="M87.6927 170.252L87.3296 170.461L89.6517 173.945L90.0149 173.736L87.6927 170.252Z" fill="#263238"/>
<path d="M90.274 169.843V180.341C90.2719 180.37 90.2613 180.397 90.2435 180.421C90.2257 180.445 90.2013 180.464 90.1729 180.476C90.0937 180.514 90.0061 180.533 89.9172 180.533C89.8283 180.533 89.7406 180.514 89.6615 180.476C89.6323 180.464 89.6071 180.446 89.5884 180.422C89.5696 180.398 89.558 180.37 89.5547 180.341V169.843H90.274Z" fill="#263238"/>
<path d="M93.5731 171.456C96.472 171.456 98.8221 169.273 98.8221 166.581C98.8221 163.888 96.472 161.705 93.5731 161.705C90.6741 161.705 88.324 163.888 88.324 166.581C88.324 169.273 90.6741 171.456 93.5731 171.456Z" fill="#455A64"/>
<path d="M95.2196 165.333C95.894 163.349 96.6134 162.577 96.1581 162.337C95.2888 161.879 94.2968 161.662 93.2989 161.71C92.301 161.758 91.3386 162.069 90.5248 162.608C89.7109 163.146 89.0795 163.889 88.7046 164.75C88.3298 165.61 88.2271 166.552 88.4087 167.465C88.5903 168.377 89.0485 169.223 89.7296 169.902C90.4108 170.581 91.2864 171.065 92.2537 171.298C93.221 171.531 94.2398 171.503 95.1902 171.216C96.1407 170.93 96.9834 170.397 97.6193 169.681C96.0682 170.104 94.3373 167.901 95.2196 165.333Z" fill="#37474F"/>
<path d="M85.3059 171.383C87.342 171.383 88.9926 169.85 88.9926 167.959C88.9926 166.068 87.342 164.534 85.3059 164.534C83.2697 164.534 81.6191 166.068 81.6191 167.959C81.6191 169.85 83.2697 171.383 85.3059 171.383Z" fill="#455A64"/>
<path d="M85.3059 164.534C84.532 164.533 83.7771 164.758 83.1478 165.176C83.0467 167.264 84.9631 169.311 84.4292 170C83.8953 170.689 82.5746 170.261 82.1138 169.681C82.4389 170.2 82.9052 170.631 83.4659 170.929C84.0266 171.228 84.662 171.384 85.3083 171.383C85.9547 171.382 86.5893 171.223 87.1485 170.922C87.7078 170.621 88.172 170.188 88.4946 169.668C88.8173 169.148 88.987 168.558 88.9868 167.958C88.9866 167.357 88.8164 166.768 88.4934 166.248C88.1704 165.727 87.7059 165.295 87.1465 164.995C86.587 164.694 85.9523 164.535 85.3059 164.534Z" fill="#37474F"/>
<path d="M94.7003 168.708C97.3428 166.254 97.3428 162.275 94.7003 159.82C92.0578 157.366 87.7735 157.366 85.1311 159.82C82.4886 162.275 82.4886 166.254 85.1311 168.708C87.7735 171.163 92.0578 171.163 94.7003 168.708Z" fill="#455A64"/>
<path d="M96.5009 165.698C96.2381 166.706 95.7099 167.638 94.9638 168.41C94.2177 169.181 93.277 169.769 92.2262 170.119C91.1753 170.47 90.0472 170.573 88.9431 170.418C87.8389 170.264 86.7933 169.858 85.9 169.235C85.0067 168.613 84.2938 167.794 83.8251 166.853C83.3565 165.912 83.1468 164.877 83.215 163.842C83.2831 162.807 83.6269 161.803 84.2155 160.922C84.804 160.041 85.619 159.309 86.5872 158.792C85.9992 159.1 85.4649 159.489 85.0024 159.946C84.8849 160.417 84.8246 160.898 84.8226 161.382C84.8123 162.643 85.2126 163.879 85.971 164.925C86.7293 165.972 87.8104 166.782 89.0726 167.249C90.3348 167.715 91.7194 167.817 93.0448 167.54C94.3703 167.264 95.5749 166.622 96.5009 165.698Z" fill="#37474F"/>
<path d="M106.269 173.889L149.419 197.024V161.768L106.269 138.633V173.889Z" fill="#F0F0F0"/>
<path d="M137.089 183.801V203.637L93.9438 180.497V160.666L137.089 183.801Z" fill="#F0F0F0"/>
<path d="M93.9438 167.275L137.089 190.415V183.801L93.9438 160.666V167.275Z" fill="#E0E0E0"/>
<path d="M106.269 145.241L149.419 168.376V161.768L106.269 138.628V145.241Z" fill="#E0E0E0"/>
<path d="M149.419 161.768L178.182 146.343V181.599L149.419 197.024V161.768Z" fill="#FAFAFA"/>
<path d="M137.089 183.801L149.419 172.787V197.024L137.089 203.637V183.801Z" fill="#FAFAFA"/>
<path d="M163.8 138.628L149.419 161.768L178.182 146.343L163.8 138.628Z" fill="#FAFAFA"/>
<path d="M147.362 165.072L163.8 138.628V136.978L147.362 163.423V165.072Z" fill="#FFC100"/>
<path opacity="0.1" d="M147.362 165.072L163.8 138.628V136.978L147.362 163.423V165.072Z" fill="black"/>
<path d="M120.652 113.842L104.216 140.284L147.363 163.421L163.798 136.98L120.652 113.842Z" fill="#FFC100"/>
<path d="M104.217 140.282L147.362 163.423V165.072L104.217 141.937V140.282Z" fill="#FFC100"/>
<path opacity="0.15" d="M104.217 140.282L147.362 163.423V165.072L104.217 141.937V140.282Z" fill="black"/>
<path d="M163.8 136.978L181.779 146.619L180.233 147.444L163.8 138.628V136.978Z" fill="#FFC100"/>
<path opacity="0.15" d="M163.8 136.978L181.779 146.619L180.233 147.444L163.8 138.628V136.978Z" fill="black"/>
<path d="M180.233 147.444H178.182V146.343L180.233 147.444Z" fill="#FFC100"/>
<path opacity="0.3" d="M180.233 147.444H178.182V146.343L180.233 147.444Z" fill="black"/>
<path d="M112.889 139.969V132.035L117.806 129.399L122.707 137.281V145.241L112.889 139.969Z" fill="#F0F0F0"/>
<path opacity="0.2" d="M117.806 129.399L111.737 132.651L110.961 132.233L117.806 128.563V129.399Z" fill="black"/>
<path d="M122.707 145.241L127.613 137.338L130.12 133.298L122.707 137.281V145.241Z" fill="#FAFAFA"/>
<path opacity="0.4" d="M111.737 132.651H112.889V132.035L111.737 132.651Z" fill="black"/>
<path d="M123.876 139.16L117.806 129.399V128.563L124.635 139.567L123.876 139.16Z" fill="#FFC100"/>
<path opacity="0.1" d="M123.876 139.16L117.806 129.399V128.563L124.635 139.567L123.876 139.16Z" fill="black"/>
<path d="M124.635 139.567L117.806 128.563L124.871 124.774L131.699 135.777L124.635 139.567Z" fill="#FFC100"/>
<path opacity="0.3" d="M124.635 139.567L117.806 128.563L124.871 124.774L131.699 135.777L124.635 139.567Z" fill="white"/>
<path d="M120.257 136.007L115.345 133.371V138.633L120.257 141.269V136.007Z" fill="#455A64"/>
<path d="M115.845 138.361V133.637L120.257 136.007V140.726L115.845 138.361Z" fill="#E0E0E0"/>
<path d="M115.345 138.633L115.845 138.361L120.257 140.726V141.269L115.345 138.633Z" fill="#37474F"/>
<path d="M133.43 150.989V143.054L138.353 140.418L143.254 148.3V156.261L133.43 150.989Z" fill="#F0F0F0"/>
<path opacity="0.2" d="M138.353 140.418L132.284 143.67L131.502 143.252L138.353 139.583V140.418Z" fill="black"/>
<path d="M143.254 156.261L148.154 148.358L150.661 144.317L143.254 148.3V156.261Z" fill="#FAFAFA"/>
<path opacity="0.4" d="M132.283 143.67H133.43V143.054L132.283 143.67Z" fill="black"/>
<path d="M144.423 150.179L138.353 140.418V139.583L145.176 150.587L144.423 150.179Z" fill="#FFC100"/>
<path opacity="0.1" d="M144.423 150.179L138.353 140.418V139.583L145.176 150.587L144.423 150.179Z" fill="black"/>
<path d="M145.176 150.587L138.353 139.583L145.412 135.788L152.24 146.792L145.176 150.587Z" fill="#FFC100"/>
<path opacity="0.3" d="M145.176 150.587L138.353 139.583L145.412 135.788L152.24 146.792L145.176 150.587Z" fill="white"/>
<path d="M140.798 147.021L135.886 144.39V149.652L140.798 152.288V147.021Z" fill="#455A64"/>
<path d="M136.392 149.381V144.657L140.798 147.021V151.745L136.392 149.381Z" fill="#E0E0E0"/>
<path d="M135.886 149.652L136.392 149.381L140.798 151.745V152.288L135.886 149.652Z" fill="#37474F"/>
<path d="M106.269 148.159L149.419 171.294V172.787L135.037 187.111L91.887 163.971V162.483L106.269 148.159Z" fill="#FFC100"/>
<path d="M106.269 148.159L149.419 171.294L135.037 185.618L91.887 162.483L106.269 148.159Z" fill="#FFC100"/>
<path opacity="0.1" d="M135.037 185.618V187.111L149.419 172.787V171.294L135.037 185.618Z" fill="black"/>
<path opacity="0.15" d="M135.037 187.111L91.887 163.971V162.483L135.037 185.618V187.111Z" fill="black"/>
<path d="M110.382 173.883L100.109 168.376V178.514L110.382 184.021V173.883Z" fill="#263238"/>
<path d="M100.739 178.174V168.716L110.382 173.889V183.342L100.739 178.174Z" fill="#FAFAFA"/>
<path d="M100.739 168.716V170.924L110.382 176.091V173.883L100.739 168.716Z" fill="#F0F0F0"/>
<path d="M100.109 178.514L100.739 178.174L110.382 183.342V184.021L100.109 178.514Z" fill="#37474F"/>
<path d="M100.109 173.445L100.739 173.106L110.382 178.273V178.952L100.109 173.445Z" fill="#37474F"/>
<path d="M105.032 181.155L105.662 181.494V171.357L105.032 171.018V181.155Z" fill="#37474F"/>
<path d="M128.872 183.801L118.599 178.294V188.432L128.872 193.939V183.801Z" fill="#263238"/>
<path d="M119.228 188.092V178.634L128.872 183.801V193.26L119.228 188.092Z" fill="#FAFAFA"/>
<path d="M119.228 178.634V180.837L128.872 186.01V183.801L119.228 178.634Z" fill="#F0F0F0"/>
<path d="M118.599 188.432L119.228 188.092L128.872 193.26V193.939L118.599 188.432Z" fill="#37474F"/>
<path d="M118.599 183.363L119.228 183.024L128.872 188.191V188.87L118.599 183.363Z" fill="#37474F"/>
<path d="M123.522 191.073L124.151 191.412V181.275L123.522 180.936V191.073Z" fill="#37474F"/>
<path d="M143.254 184.908L153.527 179.396V189.533L143.254 195.04V184.908Z" fill="#263238"/>
<path d="M152.898 189.194V179.735L143.254 184.908V194.361L152.898 189.194Z" fill="#E6E6E6"/>
<path d="M152.898 179.735V180.706L143.254 185.874V184.908L152.898 179.735Z" fill="#E0E0E0"/>
<path d="M153.527 189.533L152.898 189.194L143.254 194.362V195.04L153.527 189.533Z" fill="#37474F"/>
<path d="M153.527 184.464L152.898 184.125L143.254 189.293V189.971L153.527 184.464Z" fill="#37474F"/>
<path d="M148.604 192.174L147.975 192.514V182.376L148.604 182.037V192.174Z" fill="#37474F"/>
<path d="M159.501 152.1L169.775 146.593V156.731L159.501 162.238V152.1Z" fill="#263238"/>
<path d="M169.145 156.391V146.933L159.501 152.1V161.559L169.145 156.391Z" fill="#E6E6E6"/>
<path d="M169.145 146.933V147.904L159.501 153.071V152.1L169.145 146.933Z" fill="#E0E0E0"/>
<path d="M169.775 156.731L169.145 156.391L159.501 161.559V162.238L169.775 156.731Z" fill="#37474F"/>
<path d="M169.775 151.662L169.145 151.323L159.501 156.496V157.174L169.775 151.662Z" fill="#37474F"/>
<path d="M164.851 159.372L164.222 159.711V149.574L164.851 149.235V159.372Z" fill="#37474F"/>
<path d="M159.692 191.517V173.889L169.965 168.376V186.01L159.692 191.517Z" fill="#37474F"/>
<path d="M169.589 185.743V168.58L159.692 173.889V191.052L169.589 185.743Z" fill="#455A64"/>
<path d="M169.966 168.376L169.589 168.58V185.743L169.966 186.01V168.376Z" fill="#263238"/>
<path d="M218.303 45.127C218.272 43.7446 217.89 42.3885 217.189 41.1687C216.488 39.9489 215.487 38.8997 214.268 38.1061C213.144 37.4432 212.065 37.344 211.278 37.7198C206.529 39.9331 173.158 59.8057 171.028 60.787H171C170.775 60.9254 170.594 61.1168 170.476 61.3415C170.357 61.5663 170.305 61.8163 170.325 62.0659C170.338 62.7628 170.529 63.4468 170.882 64.062C171.234 64.6772 171.739 65.206 172.354 65.6051C172.567 65.7595 172.82 65.8583 173.088 65.8913C173.356 65.9243 173.628 65.8904 173.877 65.793H173.911C177.283 64.0652 210.222 51.0256 216.954 47.6744C217.747 47.2672 218.258 46.3902 218.303 45.127Z" fill="#FFC100"/>
<path opacity="0.1" d="M216.994 40.8413C216.333 39.7405 215.399 38.8026 214.268 38.106C213.144 37.4431 212.076 37.3439 211.29 37.7145L211.188 37.7667C206.855 39.8234 182.021 54.5386 173.664 59.3253L173.607 59.3566L173.27 59.5498L173.169 59.6072L172.978 59.7168L172.753 59.8421C171.871 60.3641 171.275 60.6668 171.067 60.7765H171.039C170.968 60.8158 170.902 60.8632 170.842 60.9174C170.685 61.0677 170.561 61.2459 170.479 61.4413C170.397 61.6368 170.358 61.8456 170.365 62.0554C170.354 62.2031 170.354 62.3513 170.365 62.4991C170.365 62.5565 170.365 62.6139 170.393 62.6713C170.421 62.7287 170.427 62.8488 170.449 62.9428C170.472 63.0367 170.488 63.0889 170.511 63.1568C170.533 63.2246 170.567 63.3291 170.601 63.4126C170.634 63.4961 170.651 63.5378 170.674 63.6005V63.6318L216.994 40.8413Z" fill="black"/>
<path d="M172.349 65.6102C171.736 65.212 171.234 64.6856 170.881 64.0734C170.529 63.4613 170.336 62.7807 170.32 62.0867C170.37 60.813 171.348 60.3223 172.512 60.9957C173.125 61.3944 173.628 61.9216 173.98 62.5347C174.333 63.1479 174.525 63.8295 174.54 64.5244C174.495 65.7981 173.512 66.294 172.349 65.6102Z" fill="#FFC100"/>
<path d="M162.373 66.4662C162.386 66.9994 162.534 67.5223 162.804 67.9929C163.075 68.4634 163.46 68.8684 163.93 69.1754C164.093 69.2925 164.287 69.3673 164.491 69.3921C164.695 69.4168 164.903 69.3907 165.093 69.3163L173.164 65.3231C173.335 65.2174 173.473 65.0713 173.564 64.8998C173.655 64.7283 173.695 64.5376 173.681 64.3469C173.668 63.8135 173.521 63.2903 173.25 62.8197C172.98 62.349 172.594 61.9441 172.124 61.6377C171.962 61.5193 171.768 61.4432 171.564 61.4175C171.359 61.3918 171.151 61.4174 170.96 61.4916L162.89 65.4849C162.718 65.591 162.579 65.7379 162.488 65.9104C162.397 66.0829 162.358 66.2747 162.373 66.4662Z" fill="#37474F"/>
<path d="M162.901 65.4849C162.727 65.5898 162.586 65.7361 162.493 65.9086C162.4 66.0812 162.359 66.2738 162.373 66.4662C162.37 66.8624 162.454 67.2549 162.62 67.6199L173.029 62.4625C172.793 62.1352 172.489 61.8548 172.135 61.6377C171.973 61.5193 171.779 61.4432 171.575 61.4175C171.37 61.3918 171.162 61.4174 170.972 61.4916L162.901 65.4849Z" fill="#263238"/>
<path d="M172.731 73.1166C172.731 68.3142 169.314 63.5118 162.474 59.8473C148.806 52.5132 126.641 52.5132 112.968 59.8473C106.134 63.5013 102.717 68.3142 102.717 73.1166V81.9906C102.717 86.793 106.134 91.5954 112.973 95.265C126.641 102.573 148.806 102.573 162.474 95.265C169.314 91.611 172.731 86.793 172.731 81.9906V73.1166ZM114.648 62.5669C120.751 59.294 128.94 57.4931 137.69 57.4931C146.44 57.4931 154.646 59.294 160.732 62.5669C166.251 65.5267 169.291 69.2746 169.291 73.1218C169.291 76.9689 166.251 80.7117 160.732 83.6714C154.629 86.9443 146.44 88.7452 137.69 88.7452C128.94 88.7452 120.735 86.9443 114.648 83.6714C109.124 80.7117 106.089 76.9637 106.089 73.1218C106.089 69.2799 109.14 65.5267 114.648 62.5669Z" fill="#FFC100"/>
<path opacity="0.3" d="M112.962 86.391C126.636 93.7251 148.795 93.7251 162.469 86.391C176.142 79.0569 176.142 67.1762 162.469 59.8473C148.795 52.5184 126.636 52.5132 112.962 59.8473C99.2886 67.1814 99.2998 79.0621 112.962 86.391ZM106.094 73.1218C106.094 69.2746 109.135 65.5267 114.654 62.5669C120.763 59.294 128.951 57.4931 137.696 57.4931C146.44 57.4931 154.651 59.294 160.738 62.5669C166.257 65.5267 169.297 69.2746 169.297 73.1218C169.297 76.9689 166.257 80.7116 160.738 83.6714C154.629 86.9443 146.44 88.7452 137.696 88.7452C128.951 88.7452 120.74 86.9443 114.654 83.6714C109.14 80.7116 106.1 76.9637 106.1 73.1218H106.094Z" fill="white"/>
<path d="M106.1 73.1166C106.12 74.6807 106.592 76.2113 107.466 77.5483C108.854 75.3142 111.299 73.221 114.665 71.4201C120.763 68.1419 128.957 66.341 137.707 66.341C146.457 66.341 154.663 68.1419 160.749 71.4201C164.121 73.221 166.56 75.3142 167.954 77.5483C168.824 76.2098 169.293 74.6799 169.314 73.1166C169.314 69.2747 166.273 65.5267 160.749 62.5669C154.651 59.294 146.457 57.4931 137.707 57.4931C128.957 57.4931 120.746 59.294 114.665 62.5669C109.141 65.5267 106.1 69.2747 106.1 73.1166Z" fill="#FFC100"/>
<path opacity="0.1" d="M106.1 73.1166C106.12 74.6807 106.592 76.2113 107.466 77.5483C108.854 75.3142 111.299 73.221 114.665 71.4201C120.763 68.1419 128.957 66.341 137.707 66.341C146.457 66.341 154.663 68.1419 160.749 71.4201C164.121 73.221 166.56 75.3142 167.954 77.5483C168.824 76.2098 169.293 74.6799 169.314 73.1166C169.314 69.2747 166.273 65.5267 160.749 62.5669C154.651 59.294 146.457 57.4931 137.707 57.4931C128.957 57.4931 120.746 59.294 114.665 62.5669C109.141 65.5267 106.1 69.2747 106.1 73.1166Z" fill="black"/>
<path opacity="0.4" d="M114.648 66.5759C120.757 63.3029 128.945 61.4968 137.69 61.4968C146.435 61.4968 154.646 63.3029 160.732 66.5759C165.284 69.0188 168.145 71.9943 169.01 75.121C168.145 78.253 165.284 81.2284 160.732 83.6714C154.623 86.9443 146.435 88.7452 137.69 88.7452C128.945 88.7452 120.735 86.9443 114.648 83.6714C110.096 81.2284 107.235 78.2478 106.37 75.121C107.247 71.9943 110.107 69.0188 114.648 66.5759Z" fill="white"/>
<path opacity="0.1" d="M129.474 91.35V100.224C123.427 99.441 117.672 97.7863 112.973 95.2546C106.134 91.6006 102.717 86.7825 102.717 81.9749V73.1009C102.719 72.1225 102.859 71.1486 103.133 70.2038C101.447 75.9197 104.751 81.9697 112.962 86.3858C117.694 88.9279 123.427 90.5827 129.474 91.35Z" fill="black"/>
</svg>
